INDEX VERSION 1.131+D:\Hibernet_(One_to_one)\.metadata\.plugins\org.eclipse.jdt.core
1797527762.index
1642600094.index
3439657490.index
1865797976.index
84624933.index
645426650.index
2955405930.index
3133734466.index
2985044951.index
344415045.index
3296446474.index
653637691.index
2355999169.index
2706049289.index
3848212308.index
3085164031.index
4103969649.index
3143390714.index
3986281119.index
1035900006.index
503783911.index
2710633066.index
2643004490.index
1881476476.index
1190446945.index
1035306073.index
4030100022.index
3631316804.index
4190436215.index
1388925996.index
3811152.index
2910925888.index
1169391566.index
3289001338.index
2387313008.index
446922058.index
455130246.index
1011126903.index
2927981964.index
1326222788.index
2973880026.index
3029703985.index
132122977.index
1871364349.index
3379987827.index
675280802.index
2986658939.index
1321599121.index
2079157312.index
3634562630.index
69931878.index
2908493586.index
3091720455.index
3653546749.index
524050775.index
889755161.index
585830224.index
2397683828.index
3858847829.index
3878782342.index
3082274910.index
4218314831.index
2586330768.index
3303069236.index
3370153111.index
3318700080.index
1865039450.index
2106708057.index
1524955856.index
3363513505.index
4124651233.index
1333218124.index
2051115726.index
